…
What's unique about the way TidyText is tokenizing the Twitter data here is that it uses a regular expression to parse data in a Twitter-specific way. This regular expression includes all alphanumeric characters and the hash ```#``` and at-reply ```@``` symbols. (Julia and David drop those in their ebook analyses, but I want to filter out all Twitter handles for privacy, as well as apply special analysis to hashtags, so I'm leaving them in.) It doesn't always do this. For natural language, you can usually just tokenize by a pre-defined "word" concept, or n-gram. But this approach is necessary when parsing text that contains a lot of URLs and special symbols, as tweets do.

To find the most common words in this tweet corpus, we can use the following code to count occurrences of each unique word, filter out the most common (n > 150, in this case), and order them most to least frequent.

~~~r
tidy_tweets %>%
  count(word, sort=TRUE) %>%
  filter(n > 150) %>%
  mutate(word = reorder(word, n))
~~~

This produces:
~~~r
# A tibble: 31 × 2
               word     n
             <fctr> <int>
1     #americafirst  5593
2             #maga  2530
3            #trump   821
4            @potus   742
5  @realdonaldtrump   741
6       #trumptrain   666
7             trump   503
8               #2a   457
9    #draintheswamp   432
10    #buildthewall   408
# ... with 21 more rows
~~~

All hashtags and Twitter handles! Let's see what's most common if we omit hashtags and handles:

~~~r
tidy_tweets %>%
  count(word, sort=TRUE) %>%
  filter(substr(word, 1, 1) != '#', # omit hashtags
         substr(word, 1, 1) != '@') %>% # omit Twitter handles
  mutate(word = reorder(word, n))

# A tibble: 6,533 × 2
        word     n
      <fctr> <int>
1      trump   503
2      video   339
3  president   316
4    america   197
5     people   188
6    illegal   165
7   american   140
8       time   121
9  americans   114
10   country   109
# ... with 6,523 more rows
…
Now we can count and sort the bigrams.

~~~r
tidy_bigrams %>%
  count(bigram, sort=TRUE) %>%
  mutate(bigram = reorder(bigram, n))
~~~

This gives us:

~~~r
# A tibble: 4,857 × 2
                  bigram     n
                  <fctr> <int>
1         illegal aliens    77
2        calls president    59
3        president trump    57
4              fake news    51
5          maxine waters    38
6       sanctuary cities    38
7             anti trump    37
8        project veritas    37
9  enforcing immigration    31
10     homeland security    31
# ... with 4,847 more rows
…
# count the frequency of a domain's occurrence in the most frequent URL list
domain_list <- url_list %>%
  mutate(domain = mapply(extract_domain, url)) %>%
  group_by(domain) %>%
  summarize(domain_count = sum(count)) %>%
  arrange(desc(domain_count))
~~~

That first function is really messy! It's simply splitting the URL by ```//``` and taking everything to the right of that, then splitting it by ```/``` and taking everything to the left of the first slash, then dropping ```www.```, if present.

This gives us a very interesting mix of domains found in the #americafirst tweets.

~~~r
# A tibble: 33 × 2
                     domain domain_count
                      <chr>        <int>
1             breitbart.com          446
2            patriotpost.us          139
3          pamelageller.com          137
4    NewsUnitedStates.co.vu          105
5               youtube.com          101
6          americaspaper.ml           69
7            USATrump.co.vu           34
8  overpassesforamerica.com           30
9               foxnews.com           26
10           whitehouse.gov           25
# ... with 23 more rows
…
